…
General information about the different kinds of BLAST databases is also available [here](https://www.nlm.nih.gov/ncbi/workshops/2023-08_BLAST_evol/databases.html).  

```
io = IOBuffer();
blastn("assets/mecA_BLAST.fasta"; db="core_nt", stdout=io, remote=true, outfmt="6 query subject expect")
seek(io, 0);
CSV.read(io, DataFrame; header=false)
```

Here is the output of the BLAST.  

```
julia> CSV.read(io, DataFrame; header=false)
500×12 DataFrame
 Row │ Column1     Column2     Column3  Column4  Column5  Column6  Column7  Column8  Column9  Column10  Column11  Column12 
     │ String15    String15    Float64  Int64    Int64    Int64    Int64    Int64    Int64    Int64     Float64   Int64    
─────┼─────────────────────────────────────────────────────────────────────────────────────────────────────────────────────
   1 │ mecA_BLAST  CP026646.1    100.0      140        0        0        1      140    46719     46580  7.12e-65       259
   2 │ mecA_BLAST  CP154497.1    100.0      140        0        0        1      140    45702     45563  7.12e-65       259
   3 │ mecA_BLAST  CP049499.1    100.0      140        0        0        1      140    61014     60875  7.12e-65       259
   4 │ mecA_BLAST  CP030403.1    100.0      140        0        0        1      140    48633     48494  7.12e-65       259
   5 │ mecA_BLAST  CP132494.1    100.0      140        0        0        1      140  1867742   1867603  7.12e-65       259
   6 │ mecA_BLAST  MH798864.1    100.0      140        0        0        1      140      281       420  7.12e-65       259
   7 │ mecA_BLAST  CP162442.1    100.0      140        0        0        1      140   503005    503144  7.12e-65       259
   8 │ mecA_BLAST  OR082611.1    100.0      140        0        0        1      140     6415      6276  7.12e-65       259
   9 │ mecA_BLAST  CP053183.1    100.0      140        0        0        1      140    41607     41468  7.12e-65       259
  10 │ mecA_BLAST  CP085310.1    100.0      140        0        0        1      140  1610215   1610076  7.12e-65       259
  11 │ mecA_BLAST  CP162465.1    100.0      140        0        0        1      140  1140196   1140057  7.12e-65       259
  12 │ mecA_BLAST  CP133660.1    100.0      140        0        0        1      140  2821019   2821158  7.12e-65       259
  13 │ mecA_BLAST  CP049476.1    100.0      140        0        0        1      140    40314     40175  7.12e-65       259
  ⋮  │     ⋮           ⋮          ⋮        ⋮        ⋮        ⋮        ⋮        ⋮        ⋮        ⋮         ⋮         ⋮
 489 │ mecA_BLAST  CP093527.1    100.0      140        0        0        1      140    42814     42675  7.12e-65       259
 490 │ mecA_BLAST  CP035541.1    100.0      140        0        0        1      140    72431     72292  7.12e-65       259
 491 │ mecA_BLAST  CP145216.2    100.0      140        0        0        1      140    45830     45691  7.12e-65       259
 492 │ mecA_BLAST  CP193734.1    100.0      140        0        0        1      140    64595     64456  7.12e-65       259
 493 │ mecA_BLAST  CP083210.2    100.0      140        0        0        1      140    43331     43192  7.12e-65       259
 494 │ mecA_BLAST  MW052033.1    100.0      140        0        0        1      140      245       384  7.12e-65       259
 495 │ mecA_BLAST  CP168087.1    100.0      140        0        0        1      140    40806     40667  7.12e-65       259
 496 │ mecA_BLAST  CP150769.1    100.0      140        0        0        1      140  2583517   2583378  7.12e-65       259
 497 │ mecA_BLAST  CP030596.1    100.0      140        0        0        1      140    40848     40709  7.12e-65       259
 498 │ mecA_BLAST  MZ398128.1    100.0      140        0        0        1      140    16977     17116  7.12e-65       259
 499 │ mecA_BLAST  CP083199.2    100.0      140        0        0        1      140    40078     39939  7.12e-65       259
 500 │ mecA_BLAST  CP162663.1    100.0      140        0        0        1      140   938360    938499  7.12e-65       259
                                                                                                           475 rows omitted
```
…
